<svg width="32" height="32" viewBox="0 0 32 32" fill="none" xmlns="http://www.w3.org/2000/svg">
<g clip-path="url(#clip0_1167_8540)">
<path d="M31.3554 0.639893H7.94434V24.0509H31.3554V0.639893Z" stroke="#171321" stroke-width="1.27982" stroke-linecap="round" stroke-linejoin="round"/>
<path d="M15.2743 16.7209H0.639648V31.3556H15.2743V16.7209Z" stroke="#171321" stroke-width="1.27982" stroke-linecap="round" stroke-linejoin="round"/>
<path d="M22.0254 4.8728H27.615V10.4624" stroke="#171321" stroke-width="1.27982" stroke-linecap="round" stroke-linejoin="round"/>
<path d="M27.6142 4.8728L17.6221 14.865" stroke="#171321" stroke-width="1.27982" stroke-linecap="round" stroke-linejoin="round"/>
</g>
<defs>
<clipPath id="clip0_1167_8540">
<rect width="31.9954" height="31.9954" fill="white"/>
</clipPath>
</defs>
</svg>
