<svg width="32" height="32" viewBox="0 0 32 32" fill="none" xmlns="http://www.w3.org/2000/svg">
<g clip-path="url(#clip0_3386_1738)">
<path d="M9.03651 13.92H2.78259V31.3043H9.03651V13.92Z" fill="#F6F5FF"/>
<path d="M19.2417 16.7026H12.9878V31.3044H19.2417V16.7026Z" fill="#E5E0FC"/>
<path d="M29.2174 11.1374H22.9635V31.3043H29.2174V11.1374Z" fill="#CFC0FF"/>
<path d="M26.0869 5.55828C27.0474 5.55828 27.826 4.77964 27.826 3.81915C27.826 2.85865 27.0474 2.08002 26.0869 2.08002C25.1264 2.08002 24.3478 2.85865 24.3478 3.81915C24.3478 4.77964 25.1264 5.55828 26.0869 5.55828Z" fill="#AC7FFF"/>
<path d="M16 11.1235C16.9605 11.1235 17.7391 10.3448 17.7391 9.38433C17.7391 8.42384 16.9605 7.6452 16 7.6452C15.0395 7.6452 14.2609 8.42384 14.2609 9.38433C14.2609 10.3448 15.0395 11.1235 16 11.1235Z" fill="#AC7FFF"/>
<path d="M5.91308 8.34087C6.87358 8.34087 7.65221 7.56224 7.65221 6.60174C7.65221 5.64125 6.87358 4.86261 5.91308 4.86261C4.95259 4.86261 4.17395 5.64125 4.17395 6.60174C4.17395 7.56224 4.95259 8.34087 5.91308 8.34087Z" fill="#AC7FFF"/>
<path d="M31.3043 30.6087H23.6522V11.8261H28.5217V27.8261C28.5217 28.0106 28.595 28.1875 28.7255 28.318C28.856 28.4484 29.0329 28.5217 29.2174 28.5217C29.4019 28.5217 29.5788 28.4484 29.7093 28.318C29.8398 28.1875 29.913 28.0106 29.913 27.8261V11.1304C29.913 10.9459 29.8398 10.769 29.7093 10.6385C29.5788 10.508 29.4019 10.4348 29.2174 10.4348H22.9565C22.772 10.4348 22.5951 10.508 22.4646 10.6385C22.3342 10.769 22.2609 10.9459 22.2609 11.1304V30.6087H13.5652V17.3913H18.4348V27.8261C18.4348 28.0106 18.5081 28.1875 18.6385 28.318C18.769 28.4484 18.9459 28.5217 19.1304 28.5217C19.3149 28.5217 19.4919 28.4484 19.6223 28.318C19.7528 28.1875 19.8261 28.0106 19.8261 27.8261V16.6956C19.8261 16.5111 19.7528 16.3342 19.6223 16.2037C19.4919 16.0733 19.3149 16 19.1304 16H12.8696C12.6851 16 12.5081 16.0733 12.3777 16.2037C12.2472 16.3342 12.1739 16.5111 12.1739 16.6956V30.6087H3.47826V14.6087H8.34783V27.8261C8.34783 28.0106 8.42112 28.1875 8.55158 28.318C8.68204 28.4484 8.85898 28.5217 9.04348 28.5217C9.22798 28.5217 9.40492 28.4484 9.53538 28.318C9.66584 28.1875 9.73913 28.0106 9.73913 27.8261V13.913C9.73913 13.7285 9.66584 13.5516 9.53538 13.4211C9.40492 13.2907 9.22798 13.2174 9.04348 13.2174H2.78261C2.59811 13.2174 2.42117 13.2907 2.29071 13.4211C2.16025 13.5516 2.08696 13.7285 2.08696 13.913V30.6087H0.695652C0.511154 30.6087 0.334212 30.682 0.203752 30.8124C0.0732917 30.9429 0 31.1198 0 31.3043C0 31.4888 0.0732917 31.6658 0.203752 31.7962C0.334212 31.9267 0.511154 32 0.695652 32H31.3043C31.4888 32 31.6658 31.9267 31.7962 31.7962C31.9267 31.6658 32 31.4888 32 31.3043C32 31.1198 31.9267 30.9429 31.7962 30.8124C31.6658 30.682 31.4888 30.6087 31.3043 30.6087Z" fill="#341472"/>
<path d="M0.695652 7.29738H3.58957C3.72204 7.74587 3.98158 8.14639 4.33682 8.45053C4.69205 8.75467 5.12777 8.94941 5.59131 9.01122C6.05486 9.07302 6.52638 8.99924 6.94889 8.7988C7.3714 8.59836 7.72682 8.27984 7.97217 7.88173L13.5722 9.43303C13.5786 10.0788 13.8413 10.6955 14.3025 11.1475C14.5309 11.3714 14.8011 11.548 15.0977 11.6674C15.3943 11.7869 15.7116 11.8467 16.0313 11.8435C16.351 11.8403 16.667 11.7741 16.9612 11.6488C17.2554 11.5235 17.522 11.3415 17.7458 11.1131C17.9697 10.8848 18.1463 10.6146 18.2657 10.3179C18.3851 10.0213 18.4449 9.70407 18.4417 9.38433C18.4412 9.21127 18.4225 9.03874 18.3861 8.86955L24.4035 5.56521C24.7029 5.85515 25.0721 6.06287 25.4754 6.16827C25.8786 6.27367 26.3022 6.27317 26.7052 6.16682C27.1082 6.06047 27.477 5.85188 27.7757 5.56124C28.0744 5.27059 28.2931 4.90774 28.4104 4.50781H31.3043C31.4888 4.50781 31.6658 4.43452 31.7962 4.30406C31.9267 4.1736 32 3.99666 32 3.81216C32 3.62766 31.9267 3.45072 31.7962 3.32026C31.6658 3.1898 31.4888 3.11651 31.3043 3.11651H28.4104C28.2463 2.55435 27.8844 2.07048 27.3916 1.75408C26.8988 1.43769 26.3082 1.31009 25.7287 1.39481C25.1493 1.47953 24.6199 1.77085 24.2383 2.21509C23.8567 2.65933 23.6485 3.22653 23.6522 3.81216C23.6539 3.99514 23.6772 4.17728 23.7217 4.35477L17.7113 7.65216C17.4859 7.42922 17.2187 7.25301 16.925 7.13363C16.6314 7.01425 16.317 6.95405 16 6.95651C15.5836 6.95234 15.1731 7.05504 14.8077 7.25477C14.4424 7.45451 14.1343 7.74462 13.913 8.09738L8.34783 6.53912C8.33169 5.96267 8.1109 5.4108 7.72497 4.9823C7.33905 4.55379 6.81321 4.27665 6.24159 4.20049C5.66997 4.12433 5.08991 4.25413 4.60526 4.56664C4.12061 4.87915 3.76302 5.35396 3.59652 5.90607H0.695652C0.511154 5.90607 0.334212 5.97937 0.203752 6.10983C0.0732917 6.24029 0 6.41723 0 6.60173C0 6.78622 0.0732917 6.96317 0.203752 7.09363C0.334212 7.22409 0.511154 7.29738 0.695652 7.29738ZM26.087 2.7826C26.2936 2.7826 26.4957 2.84398 26.6674 2.95895C26.8391 3.07392 26.9729 3.2373 27.0517 3.42838C27.1304 3.61945 27.1507 3.82962 27.1098 4.03222C27.069 4.23482 26.9689 4.42074 26.8223 4.56639C26.6757 4.71204 26.4891 4.81087 26.2862 4.85034C26.0834 4.88982 25.8733 4.86816 25.6828 4.78811C25.4922 4.70807 25.3298 4.57324 25.2159 4.40073C25.1021 4.22821 25.0421 4.02579 25.0435 3.81912C25.0453 3.54358 25.1561 3.27995 25.3516 3.08576C25.547 2.89157 25.8114 2.78259 26.087 2.7826ZM16 8.34781C16.184 8.3484 16.3645 8.39761 16.5233 8.49045C16.6821 8.5833 16.8136 8.71649 16.9043 8.87651C16.9854 9.02359 17.0284 9.18858 17.0296 9.35651C17.0365 9.56482 16.9809 9.77043 16.8699 9.94685C16.7589 10.1233 16.5976 10.2624 16.4069 10.3463C16.2161 10.4303 16.0045 10.4551 15.7995 10.4178C15.5944 10.3804 15.4053 10.2824 15.2564 10.1366C15.1075 9.99071 15.0057 9.8036 14.9642 9.59937C14.9226 9.39513 14.9431 9.18312 15.0231 8.99066C15.1031 8.7982 15.2389 8.63411 15.413 8.51953C15.5872 8.40496 15.7916 8.34515 16 8.34781ZM5.91304 5.56521C6.11972 5.56521 6.32174 5.62659 6.49349 5.74156C6.66523 5.85653 6.79897 6.01991 6.87774 6.21098C6.95651 6.40206 6.97676 6.61223 6.93593 6.81483C6.8951 7.01743 6.79503 7.20334 6.6484 7.349C6.50177 7.49465 6.31519 7.59348 6.11232 7.63295C5.90945 7.67243 5.69942 7.65077 5.50888 7.57072C5.31833 7.49067 5.15585 7.35585 5.04203 7.18333C4.92821 7.01082 4.86819 6.8084 4.86957 6.60173C4.8714 6.32619 4.98215 6.06256 5.17764 5.86837C5.37313 5.67418 5.6375 5.5652 5.91304 5.56521Z" fill="#341472"/>
</g>
<defs>
<clipPath id="clip0_3386_1738">
<rect width="32" height="32" fill="white"/>
</clipPath>
</defs>
</svg>
