<svg width="32" height="33" viewBox="0 0 32 33" fill="none" xmlns="http://www.w3.org/2000/svg">
<g clip-path="url(#clip0_1145_7382)">
<path d="M24.2051 14.5498V9.38895C24.2051 8.28726 23.9881 7.19637 23.5665 6.17854C23.145 5.16072 22.527 4.2359 21.748 3.45689C20.969 2.67788 20.0442 2.05994 19.0264 1.63834C18.0085 1.21675 16.9176 0.999756 15.8159 0.999756V0.999756C13.591 0.999756 11.4572 1.88361 9.88389 3.45689C8.31062 5.03017 7.42676 7.16399 7.42676 9.38895V14.5498" stroke="#171321" stroke-width="1.27982" stroke-linecap="round" stroke-linejoin="round"/>
<path d="M4.33008 17.1384V31.7155H27.6675" stroke="#171321" stroke-width="1.27982" stroke-linecap="round" stroke-linejoin="round"/>
<path d="M27.6675 28.4806V14.5498H4.33008" stroke="#171321" stroke-width="1.27982" stroke-linecap="round" stroke-linejoin="round"/>
<path d="M11.7722 25.5946L11.337 26.5288C11.6939 27.0199 12.1258 27.4518 12.6168 27.8086L13.5543 27.3703C13.6657 27.3217 13.7858 27.2963 13.9073 27.2956C14.0288 27.2949 14.1492 27.3189 14.2611 27.3662C14.3731 27.4135 14.4742 27.4831 14.5584 27.5707C14.6426 27.6583 14.7081 27.7621 14.7509 27.8758L15.1061 28.8357C15.6976 28.9285 16.2999 28.9285 16.8914 28.8357L17.2466 27.8758C17.2895 27.7604 17.3558 27.655 17.4413 27.5663C17.5268 27.4776 17.6296 27.4075 17.7434 27.3604C17.8572 27.3133 17.9795 27.2901 18.1027 27.2923C18.2258 27.2946 18.3472 27.3222 18.4592 27.3735L19.3967 27.8118C19.8821 27.4537 20.3085 27.0219 20.6605 26.532L20.2253 25.5978C20.174 25.4855 20.1464 25.3639 20.1441 25.2406C20.1418 25.1172 20.1649 24.9946 20.2121 24.8806C20.2592 24.7665 20.3293 24.6634 20.418 24.5776C20.5067 24.4918 20.6121 24.4252 20.7277 24.3819L21.6875 24.03C21.7787 23.4373 21.7787 22.8341 21.6875 22.2414L20.7277 21.8895C20.6121 21.8462 20.5067 21.7796 20.418 21.6938C20.3293 21.608 20.2592 21.5049 20.2121 21.3908C20.1649 21.2768 20.1418 21.1543 20.1441 21.0309C20.1464 20.9075 20.174 20.7859 20.2253 20.6737L20.6605 19.7394C20.3085 19.2495 19.8821 18.8177 19.3967 18.4596L18.4592 18.9171C18.3466 18.9682 18.2246 18.9954 18.101 18.997C17.9774 18.9986 17.8548 18.9746 17.7409 18.9265C17.627 18.8784 17.5242 18.8073 17.4392 18.7176C17.3541 18.6279 17.2885 18.5215 17.2466 18.4052L16.8914 17.4453C16.2999 17.3525 15.6976 17.3525 15.1061 17.4453L14.7509 18.4052C14.709 18.5215 14.6434 18.6279 14.5583 18.7176C14.4733 18.8073 14.3706 18.8784 14.2567 18.9265C14.1427 18.9746 14.0201 18.9986 13.8965 18.997C13.7729 18.9954 13.6509 18.9682 13.5383 18.9171L12.6008 18.4692C12.1098 18.826 11.6779 19.2579 11.321 19.749L11.7562 20.6833C11.808 20.7954 11.836 20.9171 11.8385 21.0406C11.8411 21.1641 11.818 21.2868 11.7708 21.401C11.7237 21.5152 11.6534 21.6184 11.5644 21.7041C11.4754 21.7898 11.3697 21.8562 11.2538 21.8991L10.294 22.251C10.2028 22.8437 10.2028 23.4469 10.294 24.0396L11.2538 24.3915C11.3701 24.4322 11.4766 24.4965 11.5667 24.5804C11.6568 24.6644 11.7285 24.7661 11.7772 24.8792C11.8259 24.9923 11.8506 25.1143 11.8498 25.2374C11.8489 25.3606 11.8225 25.4822 11.7722 25.5946ZM14.1078 23.1341C14.1078 22.7601 14.2187 22.3945 14.4265 22.0836C14.6343 21.7726 14.9296 21.5302 15.2751 21.3871C15.6207 21.244 16.0009 21.2066 16.3677 21.2795C16.7345 21.3525 17.0714 21.5326 17.3358 21.797C17.6003 22.0615 17.7804 22.3984 17.8533 22.7652C17.9263 23.132 17.8889 23.5122 17.7457 23.8577C17.6026 24.2033 17.3603 24.4986 17.0493 24.7064C16.7383 24.9141 16.3727 25.025 15.9988 25.025C15.4973 25.025 15.0163 24.8258 14.6617 24.4712C14.3071 24.1166 14.1078 23.6356 14.1078 23.1341V23.1341Z" stroke="#171321" stroke-width="1.27982" stroke-linecap="round" stroke-linejoin="round"/>
</g>
<defs>
<clipPath id="clip0_1145_7382">
<rect width="31.9954" height="31.9954" fill="white" transform="translate(0 0.359863)"/>
</clipPath>
</defs>
</svg>
