<svg width="26" height="26" viewBox="0 0 26 26" fill="none" xmlns="http://www.w3.org/2000/svg">
<g clip-path="url(#clip0_1095_13180)">
<path d="M7.58334 10.2917H2.16667V25.7292H7.58334V10.2917Z" stroke="#171321" stroke-width="0.541667" stroke-miterlimit="10"/>
<path d="M15.7083 14.3542H10.2917V25.7292H15.7083V14.3542Z" stroke="#171321" stroke-width="0.541667" stroke-miterlimit="10"/>
<path d="M14.1673 5.54396L19.8304 2.22625" stroke="#171321" stroke-width="0.541667" stroke-miterlimit="10"/>
<path d="M6.42416 3.96229L11.7217 5.78771" stroke="#171321" stroke-width="0.541667" stroke-miterlimit="10"/>
<path d="M3.96771 4.18708L0.132706 6.34562" stroke="#171321" stroke-width="0.541667" stroke-miterlimit="10"/>
<path d="M21.9402 2.43479L25.8402 5.33271" stroke="#171321" stroke-width="0.541667" stroke-miterlimit="10"/>
<path d="M13 7.58333C13.7479 7.58333 14.3542 6.97705 14.3542 6.22916C14.3542 5.48128 13.7479 4.875 13 4.875C12.2521 4.875 11.6458 5.48128 11.6458 6.22916C11.6458 6.97705 12.2521 7.58333 13 7.58333Z" stroke="#171321" stroke-width="0.541667" stroke-miterlimit="10"/>
<path d="M20.8542 2.97917C21.6021 2.97917 22.2083 2.37288 22.2083 1.625C22.2083 0.877113 21.6021 0.270832 20.8542 0.270832C20.1063 0.270832 19.5 0.877113 19.5 1.625C19.5 2.37288 20.1063 2.97917 20.8542 2.97917Z" stroke="#171321" stroke-width="0.541667" stroke-miterlimit="10"/>
<path d="M5.14584 4.875C5.89372 4.875 6.50001 4.26872 6.50001 3.52083C6.50001 2.77295 5.89372 2.16666 5.14584 2.16666C4.39795 2.16666 3.79167 2.77295 3.79167 3.52083C3.79167 4.26872 4.39795 4.875 5.14584 4.875Z" stroke="#171321" stroke-width="0.541667" stroke-miterlimit="10"/>
<path d="M18.4167 7.58333H23.8333V22.4792C23.8333 24.2721 22.3763 25.7292 20.5833 25.7292H18.4167V7.58333Z" stroke="#171321" stroke-width="0.541667" stroke-miterlimit="10"/>
</g>
<defs>
<clipPath id="clip0_1095_13180">
<rect width="26" height="26" fill="white"/>
</clipPath>
</defs>
</svg>
