<svg width="26" height="26" viewBox="0 0 26 26" fill="none" xmlns="http://www.w3.org/2000/svg">
<path d="M3.01709 16.3448C4.18709 19.4485 6.89272 23.9254 13 25.694C20.5427 23.5083 22.8963 17.1925 23.5788 14.4327" stroke="#171321" stroke-width="0.541667" stroke-miterlimit="10"/>
<path d="M23.8333 9.47916V3.89187C23.8333 3.89187 16.7077 6.26437 13 0.506454C9.29225 6.26437 2.16663 3.89187 2.16663 3.89187V11.5375" stroke="#171321" stroke-width="0.541667" stroke-miterlimit="10"/>
<path d="M23.8333 14.3542C24.5812 14.3542 25.1875 13.7479 25.1875 13C25.1875 12.2521 24.5812 11.6458 23.8333 11.6458C23.0854 11.6458 22.4791 12.2521 22.4791 13C22.4791 13.7479 23.0854 14.3542 23.8333 14.3542Z" stroke="#171321" stroke-width="0.541667" stroke-miterlimit="10"/>
<path d="M2.16667 14.3542C2.91455 14.3542 3.52083 13.7479 3.52083 13C3.52083 12.2521 2.91455 11.6458 2.16667 11.6458C1.41878 11.6458 0.8125 12.2521 0.8125 13C0.8125 13.7479 1.41878 14.3542 2.16667 14.3542Z" stroke="#171321" stroke-width="0.541667" stroke-miterlimit="10"/>
<path d="M9.59558 13.5471L11.6079 15.5567L16.4043 10.7602" stroke="#171321" stroke-width="0.541667" stroke-miterlimit="10"/>
</svg>
