<svg width="32" height="33" viewBox="0 0 32 33" fill="none" xmlns="http://www.w3.org/2000/svg">
<g clip-path="url(#clip0_1145_6510)">
<path d="M1.71483 21.9298C0.607499 19.1423 0.340643 16.0915 0.947204 13.1541C1.55376 10.2167 3.00719 7.52118 5.12808 5.40029C7.24897 3.27941 9.94448 1.82598 12.8819 1.21942C15.8193 0.61286 18.8701 0.879716 21.6576 1.98705" stroke="#171321" stroke-width="1.27982" stroke-linecap="round" stroke-linejoin="round"/>
<path d="M30.0214 9.99536C31.3105 12.8739 31.6821 16.0795 31.0856 19.1765C30.4892 22.2736 28.9537 25.1119 26.6878 27.3058C24.4219 29.4997 21.5355 30.9428 18.4208 31.4389C15.3061 31.935 12.1142 31.4602 9.27881 30.0789" stroke="#171321" stroke-width="1.27982" stroke-linecap="round" stroke-linejoin="round"/>
<path d="M5.43896 16.2696C5.44206 14.1836 6.06298 12.1453 7.22337 10.4118C8.38376 8.67839 10.0316 7.3275 11.959 6.52965C13.8864 5.73179 16.0069 5.52273 18.053 5.92883C20.0991 6.33494 21.979 7.33802 23.4556 8.81149C23.8268 9.1803 24.1691 9.57715 24.4794 9.99852" stroke="#171321" stroke-width="1.27982" stroke-linecap="round" stroke-linejoin="round"/>
<path d="M26.5553 16.2698C26.5525 18.4925 25.8483 20.6576 24.5431 22.4567C23.2379 24.2558 21.3982 25.5972 19.2861 26.2896C17.174 26.9821 14.8973 26.9903 12.7802 26.3132C10.6632 25.6361 8.81382 24.3081 7.49561 22.5185" stroke="#171321" stroke-width="1.27982" stroke-linecap="round" stroke-linejoin="round"/>
<path d="M15.9966 21.9266C19.1208 21.9266 21.6534 19.394 21.6534 16.2698C21.6534 13.1457 19.1208 10.613 15.9966 10.613C12.8725 10.613 10.3398 13.1457 10.3398 16.2698C10.3398 19.394 12.8725 21.9266 15.9966 21.9266Z" stroke="#171321" stroke-width="1.27982" stroke-linecap="round" stroke-linejoin="round"/>
<path d="M13.8379 16.5192L15.1168 17.8013L18.1649 14.7532" stroke="#171321" stroke-width="1.27982" stroke-linecap="round" stroke-linejoin="round"/>
<path d="M24.4841 7.18628V10.0037H21.6699" stroke="#171321" stroke-width="1.27982" stroke-linecap="round" stroke-linejoin="round"/>
<path d="M7.49561 25.3293V22.512H10.313" stroke="#171321" stroke-width="1.27982" stroke-linecap="round" stroke-linejoin="round"/>
</g>
<defs>
<clipPath id="clip0_1145_6510">
<rect width="31.9954" height="31.9954" fill="white" transform="translate(0 0.271973)"/>
</clipPath>
</defs>
</svg>
