<svg width="32" height="32" viewBox="0 0 32 32" fill="none" xmlns="http://www.w3.org/2000/svg">
<g clip-path="url(#clip0_7989_15813)">
<path d="M8.61133 15.9976H12.0185" stroke="#171321" stroke-width="1.27982" stroke-linecap="round" stroke-linejoin="round"/>
<path d="M19.985 15.9976H23.3921" stroke="#171321" stroke-width="1.27982" stroke-linecap="round" stroke-linejoin="round"/>
<path d="M4.62774 19.9845C6.82949 19.9845 8.61436 18.1996 8.61436 15.9979C8.61436 13.7961 6.82949 12.0112 4.62774 12.0112C2.42599 12.0112 0.641113 13.7961 0.641113 15.9979C0.641113 18.1996 2.42599 19.9845 4.62774 19.9845Z" stroke="#171321" stroke-width="1.27982" stroke-linecap="round" stroke-linejoin="round"/>
<path d="M3.24146 16.1563L4.06199 16.9769L6.01396 15.0249" stroke="#171321" stroke-width="1.27982" stroke-linecap="round" stroke-linejoin="round"/>
<path d="M27.3679 19.9845C29.5696 19.9845 31.3545 18.1996 31.3545 15.9979C31.3545 13.7961 29.5696 12.0112 27.3679 12.0112C25.1661 12.0112 23.3812 13.7961 23.3812 15.9979C23.3812 18.1996 25.1661 19.9845 27.3679 19.9845Z" stroke="#171321" stroke-width="1.27982" stroke-linecap="round" stroke-linejoin="round"/>
<path d="M25.986 16.1563L26.8065 16.9769L28.7585 15.0249" stroke="#171321" stroke-width="1.27982" stroke-linecap="round" stroke-linejoin="round"/>
<path d="M15.9996 19.9845C18.2013 19.9845 19.9862 18.1996 19.9862 15.9979C19.9862 13.7961 18.2013 12.0112 15.9996 12.0112C13.7978 12.0112 12.0129 13.7961 12.0129 15.9979C12.0129 18.1996 13.7978 19.9845 15.9996 19.9845Z" stroke="#171321" stroke-width="1.27982" stroke-linecap="round" stroke-linejoin="round"/>
<path d="M14.6123 16.1563L15.4328 16.9769L17.388 15.0249" stroke="#171321" stroke-width="1.27982" stroke-linecap="round" stroke-linejoin="round"/>
</g>
<defs>
<clipPath id="clip0_7989_15813">
<rect width="31.9954" height="31.9954" fill="white"/>
</clipPath>
</defs>
</svg>
