<svg width="32" height="33" viewBox="0 0 32 33" fill="none" xmlns="http://www.w3.org/2000/svg">
<g clip-path="url(#clip0_7608_14900)">
<path d="M23.6918 21.9613H26.6002C27.8612 21.9613 29.0705 21.4604 29.9622 20.5688C30.8538 19.6771 31.3547 18.4678 31.3547 17.2068C31.3547 15.9458 30.8538 14.7365 29.9622 13.8449C29.0705 12.9532 27.8612 12.4523 26.6002 12.4523C26.5234 12.4523 26.4466 12.4523 26.3667 12.4523C26.2836 10.4064 25.5136 8.44815 24.181 6.89355C22.8484 5.33895 21.0309 4.27867 19.0218 3.88379C17.0126 3.48891 14.929 3.78247 13.1072 4.7171C11.2854 5.65173 9.83155 7.17291 8.98036 9.03518C8.40809 8.87865 7.81709 8.80114 7.22381 8.80482C5.47745 8.80482 3.80262 9.49856 2.56776 10.7334C1.3329 11.9683 0.63916 13.6431 0.63916 15.3895C0.63916 17.1358 1.3329 18.8107 2.56776 20.0455C3.80262 21.2804 5.47745 21.9741 7.22381 21.9741H8.31805" stroke="#171321" stroke-width="1.27982" stroke-linecap="round" stroke-linejoin="round"/>
<path d="M8.3186 21.555C8.31924 20.0325 8.77148 18.5445 9.6181 17.2791C10.4647 16.0138 11.6677 15.028 13.0747 14.4466C14.4818 13.8651 16.0297 13.7141 17.5225 14.0127C19.0154 14.3113 20.3862 15.046 21.4614 16.1239C22.5366 17.2017 23.2679 18.5743 23.5627 20.068C23.8575 21.5616 23.7027 23.1091 23.1177 24.5147C22.5328 25.9203 21.544 27.1208 20.2766 27.9642C19.0091 28.8077 17.5199 29.2562 15.9975 29.253C13.9589 29.2488 12.0053 28.4358 10.5656 26.9925C9.12589 25.5492 8.31775 23.5935 8.3186 21.555V21.555Z" stroke="#171321" stroke-width="1.27982" stroke-linecap="round" stroke-linejoin="round"/>
<path d="M13.4956 21.8402L14.9796 23.3242L18.5086 19.7921" stroke="#171321" stroke-width="1.27982" stroke-linecap="round" stroke-linejoin="round"/>
</g>
<defs>
<clipPath id="clip0_7608_14900">
<rect width="31.9954" height="31.9954" fill="white" transform="translate(0 0.485962)"/>
</clipPath>
</defs>
</svg>
