<svg width="12" height="11" viewBox="0 0 12 11" fill="none" xmlns="http://www.w3.org/2000/svg">
<path d="M4.02879 10.0288C4.32771 10.0276 4.61416 9.91 4.82639 9.70141L11.663 2.927C11.7698 2.82203 11.8545 2.69716 11.9124 2.55957C11.9702 2.42198 12 2.27441 12 2.12536C12 1.97631 11.9702 1.82873 11.9124 1.69114C11.8545 1.55356 11.7698 1.42868 11.663 1.32372C11.4495 1.11343 11.1607 0.995392 10.8597 0.995392C10.5586 0.995392 10.2698 1.11343 10.0564 1.32372L4.02879 7.31908L1.94364 5.25288C1.73015 5.04259 1.44136 4.92456 1.14034 4.92456C0.839318 4.92456 0.550528 5.04259 0.337042 5.25288C0.230245 5.35784 0.145479 5.48272 0.0876313 5.62031C0.029784 5.75789 0 5.90547 0 6.05452C0 6.20357 0.029784 6.35115 0.0876313 6.48873C0.145479 6.62632 0.230245 6.7512 0.337042 6.85616L3.21979 9.7127C3.43668 9.91992 3.72755 10.0336 4.02879 10.0288Z" fill="#171321"/>
</svg>
