<svg width="32" height="32" viewBox="0 0 32 32" fill="none" xmlns="http://www.w3.org/2000/svg">
<path d="M16 22.08C11.904 22.08 8.51196 18.752 8.51196 14.592V7.488C8.51196 3.328 11.904 0 16 0C20.096 0 23.488 3.328 23.488 7.488V14.656C23.488 18.752 20.096 22.08 16 22.08ZM16 2.56C13.312 2.56 11.072 4.736 11.072 7.488V14.656C11.072 17.344 13.248 19.584 16 19.584C18.752 19.584 20.928 17.408 20.928 14.656V7.488C20.928 4.736 18.688 2.56 16 2.56Z" fill="#7D2BD9"/>
<path d="M15.9999 26.496C9.40795 26.496 4.09595 21.184 4.09595 14.592C4.09595 13.888 4.67195 13.312 5.37595 13.312C6.07995 13.312 6.65595 13.888 6.65595 14.592C6.65595 19.776 10.8799 23.936 15.9999 23.936C21.1199 23.936 25.3439 19.712 25.3439 14.592C25.3439 13.888 25.9199 13.312 26.6239 13.312C27.3279 13.312 27.9039 13.888 27.9039 14.592C27.9039 21.184 22.5919 26.496 15.9999 26.496Z" fill="#7D2BD9"/>
<path d="M16 32C15.296 32 14.72 31.424 14.72 30.72V25.216C14.72 24.512 15.296 23.936 16 23.936C16.704 23.936 17.28 24.512 17.28 25.216V30.72C17.28 31.424 16.704 32 16 32Z" fill="#7D2BD9"/>
<path d="M20.032 32H11.968C11.264 32 10.688 31.424 10.688 30.72C10.688 30.016 11.264 29.44 11.968 29.44H20.032C20.736 29.44 21.312 30.016 21.312 30.72C21.312 31.424 20.736 32 20.032 32Z" fill="#7D2BD9"/>
<path d="M26.6239 12.352H5.37595C4.67195 12.352 4.09595 11.776 4.09595 11.072C4.09595 10.368 4.67195 9.79199 5.37595 9.79199H26.6239C27.3279 9.79199 27.9039 10.368 27.9039 11.072C27.9039 11.776 27.3279 12.352 26.6239 12.352Z" fill="#7D2BD9"/>
</svg>
