<svg width="16" height="16" viewBox="0 0 16 16" fill="none" xmlns="http://www.w3.org/2000/svg">
<path d="M8.5 5C8.5 5.27612 8.27611 5.5 8 5.5C7.72389 5.5 7.5 5.27612 7.5 5C7.5 4.72388 7.72389 4.5 8 4.5C8.27611 4.5 8.5 4.72388 8.5 5ZM7.5 8C7.5 7.72388 7.72389 7.5 8 7.5C8.27611 7.5 8.5 7.72388 8.5 8V11C8.5 11.2761 8.27611 11.5 8 11.5C7.72389 11.5 7.5 11.2761 7.5 11V8Z" fill="#333333" stroke="#333333"/>
<circle cx="8" cy="8" r="7.625" stroke="#333333" stroke-width="0.75"/>
</svg>
