<svg width="16" height="16" viewBox="0 0 16 16" fill="none" xmlns="http://www.w3.org/2000/svg">
<path d="M10.7197 5.84021C11.0126 6.13311 11.4874 6.13311 11.7803 5.84021C12.0732 5.54732 12.0732 5.07245 11.7803 4.77955L8.53032 1.52955L7.99999 0.999224L7.46966 1.52955L4.21966 4.77955C3.92676 5.07245 3.92676 5.54732 4.21966 5.84021C4.51255 6.13311 4.98742 6.13311 5.28032 5.84021L7.25 3.87053L7.25 12C7.25 12.8284 6.57843 13.5 5.75 13.5H1.74999C1.33577 13.5 0.999989 13.8358 0.999989 14.25C0.999989 14.6642 1.33577 15 1.74999 15H5.75C7.40685 15 8.75 13.6569 8.75 12V3.87056L10.7197 5.84021Z" fill="currentColor"/>
</svg>
