<svg width="12" height="12" viewBox="0 0 12 12" fill="none" xmlns="http://www.w3.org/2000/svg">
<path fill-rule="evenodd" clip-rule="evenodd" d="M4.25 1.5H7.75C8.02614 1.5 8.25 1.72386 8.25 2V10C8.25 10.2761 8.02614 10.5 7.75 10.5H4.25C3.97386 10.5 3.75 10.2761 3.75 10V2C3.75 1.72386 3.97386 1.5 4.25 1.5ZM2.25 2C2.25 0.895431 3.14543 0 4.25 0H7.75C8.85457 0 9.75 0.895431 9.75 2V10C9.75 11.1046 8.85457 12 7.75 12H4.25C3.14543 12 2.25 11.1046 2.25 10V2ZM6 9.75C6.41421 9.75 6.75 9.41421 6.75 9C6.75 8.58579 6.41421 8.25 6 8.25C5.58579 8.25 5.25 8.58579 5.25 9C5.25 9.41421 5.58579 9.75 6 9.75Z" fill="black"/>
</svg>
