<svg width="10" height="8" viewBox="0 0 10 8" fill="none" xmlns="http://www.w3.org/2000/svg">
<path fill-rule="evenodd" clip-rule="evenodd" d="M9.78033 0.619671C10.0732 0.912565 10.0732 1.38744 9.78033 1.68033L3.68345 7.77721C3.54128 7.91938 3.34798 7.99852 3.14692 7.99686C2.94587 7.99519 2.7539 7.91288 2.6141 7.76838L0.210979 5.28448C-0.0770342 4.98679 -0.0691863 4.51198 0.228507 4.22397C0.526201 3.93595 1.00101 3.9438 1.28902 4.24149L3.16196 6.17738L8.71967 0.619671C9.01256 0.326778 9.48744 0.326778 9.78033 0.619671Z" fill="black"/>
</svg>
