<svg width="32" height="32" viewBox="0 0 32 32" fill="none" xmlns="http://www.w3.org/2000/svg">
<g clip-path="url(#clip0_1145_6758)">
<path d="M14.9282 12.8718L10.7464 8.71244C10.2488 8.20083 9.61104 7.84766 8.91334 7.69728C8.21564 7.54689 7.48905 7.606 6.82483 7.86718C6.16061 8.12835 5.58836 8.57996 5.17994 9.16527C4.77152 9.75059 4.54514 10.4435 4.52922 11.1571C4.51331 11.8706 4.70857 12.573 5.09048 13.1759C5.4724 13.7789 6.02394 14.2555 6.67586 14.5461C7.32778 14.8366 8.051 14.928 8.75471 14.8089C9.45843 14.6898 10.1113 14.3654 10.6312 13.8765L11.5911 12.9166" stroke="#171321" stroke-width="1.27982" stroke-linecap="round" stroke-linejoin="round"/>
<path d="M17.5771 6.93673L18.4698 5.97687C19.3366 5.09198 20.4086 4.43514 21.5906 4.06481C22.7726 3.69448 24.0279 3.62216 25.2446 3.85429C26.4613 4.08641 27.6017 4.61578 28.5643 5.39527C29.527 6.17475 30.2819 7.18016 30.762 8.32199C31.2421 9.46382 31.4324 10.7066 31.316 11.9398C31.1995 13.173 30.78 14.3582 30.0947 15.39C29.4094 16.4219 28.4797 17.2682 27.3882 17.8538C26.2966 18.4393 25.0773 18.7459 23.8386 18.7462" stroke="#171321" stroke-width="1.27982" stroke-linecap="round" stroke-linejoin="round"/>
<path d="M20.3355 9.57615L21.2474 8.70588C21.7456 8.19363 22.3841 7.84017 23.0826 7.68997C23.7812 7.53977 24.5085 7.59954 25.1732 7.86177C25.8379 8.12399 26.4101 8.57696 26.8179 9.16365C27.2258 9.75035 27.451 10.4446 27.4652 11.1589C27.4794 11.8733 27.2819 12.5759 26.8977 13.1784C26.5135 13.7808 25.9598 14.2562 25.306 14.5446C24.6523 14.833 23.9279 14.9216 23.2239 14.7993C22.52 14.677 21.8679 14.3492 21.3498 13.8571L13.5269 5.97667C12.6604 5.09017 11.588 4.43179 10.4053 4.06019C9.2226 3.6886 7.96637 3.61532 6.7485 3.84689C5.53064 4.07847 4.38896 4.6077 3.4252 5.38743C2.46144 6.16717 1.70553 7.1732 1.2248 8.31588C0.744082 9.45857 0.55348 10.7024 0.669983 11.9366C0.786485 13.1708 1.20647 14.357 1.89253 15.3896C2.57858 16.4221 3.5094 17.2689 4.60204 17.8546C5.69468 18.4402 6.91522 18.7464 8.15491 18.746" stroke="#171321" stroke-width="1.27982" stroke-linecap="round" stroke-linejoin="round"/>
<path d="M15.9971 28.2808C12.9447 27.3497 10.3467 24.6845 10.3467 21.2098V16.3177C11.3492 16.6884 12.446 16.7185 13.4673 16.4033C14.4887 16.0881 15.3778 15.4452 15.9971 14.574V14.574C16.6164 15.4452 17.5054 16.0881 18.5268 16.4033C19.5481 16.7185 20.6449 16.6884 21.6474 16.3177V21.2098C21.6474 24.6845 19.0494 27.3497 15.9971 28.2808" stroke="#171321" stroke-width="1.27982" stroke-linecap="round" stroke-linejoin="round"/>
<path d="M17.3001 21.6057V20.573C17.3022 20.4032 17.2706 20.2347 17.2071 20.0772C17.1436 19.9197 17.0494 19.7764 16.9301 19.6555C16.8107 19.5347 16.6686 19.4388 16.5119 19.3733C16.3552 19.3079 16.1871 19.2742 16.0173 19.2742V19.2742C15.8475 19.2742 15.6793 19.3079 15.5226 19.3733C15.3659 19.4388 15.2238 19.5347 15.1045 19.6555C14.9852 19.7764 14.891 19.9197 14.8275 20.0772C14.764 20.2347 14.7324 20.4032 14.7345 20.573V21.6057" stroke="#171321" stroke-width="1.27982" stroke-linecap="round" stroke-linejoin="round"/>
<path d="M17.758 21.6001H14.2451V24.0777H17.758V21.6001Z" stroke="#171321" stroke-width="1.27982" stroke-linecap="round" stroke-linejoin="round"/>
</g>
<defs>
<clipPath id="clip0_1145_6758">
<rect width="31.9954" height="31.9954" fill="white"/>
</clipPath>
</defs>
</svg>
