<svg width="32" height="32" viewBox="0 0 32 32" fill="none" xmlns="http://www.w3.org/2000/svg">
<g clip-path="url(#clip0_1386_12925)">
<path d="M16 27.0976C15.864 27.0972 15.7318 27.0535 15.6223 26.9728L10.9311 23.5136C10.7622 23.3888 10.6359 23.2148 10.5695 23.0155C10.503 22.8162 10.4997 22.6013 10.5599 22.4L12.1599 17.3504C12.2153 17.184 12.3212 17.0391 12.4629 16.9358C12.6046 16.8326 12.775 16.7761 12.9504 16.7744C13.1271 16.7683 13.3012 16.819 13.447 16.9193C13.5928 17.0195 13.7025 17.1639 13.7599 17.3312L14.6911 20.2432H17.3216L18.24 17.3344C18.2926 17.1683 18.3966 17.0231 18.5368 16.9196C18.6771 16.8162 18.8465 16.7597 19.0208 16.7584C19.1949 16.7581 19.3647 16.8131 19.5056 16.9155C19.6465 17.0178 19.7512 17.1623 19.8048 17.328L21.44 22.4C21.5045 22.6028 21.504 22.8208 21.4386 23.0233C21.3732 23.2258 21.2461 23.4029 21.0752 23.5296L16.3807 26.9696C16.2715 27.0533 16.1376 27.0983 16 27.0976ZM11.8399 22.5952L16 25.6608L20.16 22.5952L19.0368 19.0752L18.3968 21.0752C18.3555 21.2041 18.2744 21.3166 18.1651 21.3966C18.0559 21.4765 17.9241 21.5197 17.7888 21.52H14.2176C14.0822 21.5197 13.9504 21.4765 13.8412 21.3966C13.7319 21.3166 13.6508 21.2041 13.6095 21.0752L12.9695 19.072L11.8399 22.5952Z" fill="#171321"/>
<path d="M26.096 23.3344H23.7856C23.6159 23.3344 23.4531 23.267 23.3331 23.1469C23.213 23.0269 23.1456 22.8641 23.1456 22.6944C23.1456 22.5247 23.213 22.3619 23.3331 22.2418C23.4531 22.1218 23.6159 22.0544 23.7856 22.0544H26.096C26.7124 22.0706 27.3258 21.9632 27.9001 21.7386C28.4743 21.5139 28.9977 21.1765 29.4394 20.7462C29.8811 20.316 30.2322 19.8016 30.4719 19.2335C30.7116 18.6654 30.8351 18.055 30.8351 17.4384C30.8351 16.8218 30.7116 16.2114 30.4719 15.6433C30.2322 15.0752 29.8811 14.5608 29.4394 14.1306C28.9977 13.7003 28.4743 13.3629 27.9001 13.1382C27.3258 12.9135 26.7124 12.8062 26.096 12.8224C25.747 12.8243 25.3992 12.865 25.0592 12.944C24.9588 12.9669 24.8544 12.9653 24.7548 12.9393C24.6552 12.9133 24.5633 12.8636 24.487 12.7945C24.4107 12.7254 24.3522 12.6389 24.3164 12.5424C24.2807 12.4459 24.2687 12.3421 24.2816 12.24C24.3193 11.946 24.3385 11.65 24.3392 11.3536C24.3381 9.7326 23.7637 8.16425 22.7175 6.92606C21.6713 5.68787 20.2209 4.85967 18.6228 4.58803C17.0247 4.31638 15.3821 4.6188 13.9856 5.44177C12.589 6.26474 11.5286 7.5552 10.992 9.08479C10.9635 9.16566 10.9191 9.23998 10.8613 9.30335C10.8035 9.36671 10.7336 9.41781 10.6557 9.45363C10.5778 9.48945 10.4935 9.50925 10.4078 9.51185C10.3221 9.51446 10.2367 9.49981 10.1568 9.46879C9.26442 9.12097 8.30633 8.97418 7.35075 9.03887C6.39518 9.10355 5.46561 9.37812 4.62825 9.84303C3.79089 10.3079 3.06632 10.9517 2.50615 11.7286C1.94598 12.5055 1.56397 13.3963 1.38734 14.3376C1.2107 15.279 1.24378 16.2477 1.48422 17.1748C1.72465 18.1019 2.16653 18.9645 2.7784 19.7014C3.39026 20.4382 4.15705 21.0311 5.02418 21.4378C5.8913 21.8445 6.83743 22.055 7.7952 22.0544H8.64C8.80974 22.0544 8.97252 22.1218 9.09255 22.2418C9.21257 22.3619 9.28 22.5247 9.28 22.6944C9.28 22.8641 9.21257 23.0269 9.09255 23.1469C8.97252 23.267 8.80974 23.3344 8.64 23.3344H7.7952C5.72778 23.3344 3.74504 22.5131 2.28316 21.0512C0.821278 19.5893 0 17.6066 0 15.5392C0 13.4718 0.821278 11.489 2.28316 10.0272C3.74504 8.56527 5.72778 7.74399 7.7952 7.74399C8.55357 7.73947 9.30843 7.84731 10.0352 8.06399C10.7933 6.36116 12.1125 4.96991 13.7727 4.1225C15.4329 3.27509 17.3335 3.02281 19.1573 3.40778C20.981 3.79276 22.6175 4.79168 23.7936 6.23779C24.9696 7.68389 25.614 9.48965 25.6192 11.3536C25.6192 11.4208 25.6192 11.4944 25.6192 11.5648C25.7824 11.5648 25.9392 11.5424 26.0992 11.5424C26.885 11.5241 27.6666 11.663 28.3979 11.9511C29.1293 12.2392 29.7957 12.6706 30.3579 13.2199C30.9202 13.7692 31.367 14.4253 31.672 15.1498C31.977 15.8742 32.1342 16.6523 32.1342 17.4384C32.1342 18.2244 31.977 19.0025 31.672 19.727C31.367 20.4514 30.9202 21.1076 30.3579 21.6569C29.7957 22.2062 29.1293 22.6376 28.3979 22.9257C27.6666 23.2137 26.885 23.3527 26.0992 23.3344H26.096Z" fill="#171321"/>
</g>
<defs>
<clipPath id="clip0_1386_12925">
<rect width="32" height="32" fill="white"/>
</clipPath>
</defs>
</svg>
