<svg width="103" height="24" viewBox="0 0 103 24" fill="none" xmlns="http://www.w3.org/2000/svg">
<g clip-path="url(#clip0_854_2126)">
<path d="M59.4382 18.1282C59.4382 18.4136 59.2049 18.6468 58.9188 18.6468H57.5181C56.4708 18.6393 55.6245 17.7892 55.6245 16.7404V10.9954C55.6245 9.18948 54.8221 8.26158 53.392 8.26158C51.9629 8.26158 51.0844 9.18948 51.0844 10.9954V16.7404C51.0844 17.7938 50.2309 18.6468 49.1778 18.6468C48.1242 18.6468 47.2715 17.7938 47.2715 16.7404V10.9954C47.2715 9.18948 46.4693 8.26158 45.039 8.26158C43.6088 8.26158 42.7313 9.18948 42.7313 10.9954V16.7404C42.7313 17.7892 41.8842 18.6393 40.8373 18.6468H39.4373C39.1511 18.6468 38.9185 18.4135 38.9185 18.1282V5.42233C38.9185 5.13712 39.1511 4.90427 39.4373 4.90427L40.8246 4.9006C41.8779 4.9006 42.7315 5.75327 42.7315 6.80643V6.95802C43.6088 5.82901 44.7634 4.80005 46.6949 4.80005C48.4507 4.80005 49.7808 5.57718 50.4831 6.93189C51.6623 5.55268 53.0659 4.80005 54.897 4.80005C57.7324 4.80005 59.4384 6.50529 59.4384 9.74174V18.1286L59.4382 18.1282Z" fill="white"/>
<path d="M60.7644 22.0943C60.7644 23.1477 61.6174 24.0007 62.6716 24.0007C63.7246 24.0007 64.5778 23.1477 64.5778 22.0943V16.7412C65.4807 17.8202 66.7347 18.7477 68.7661 18.7477C71.952 18.7477 74.8871 16.2896 74.8871 11.7992V11.7488C74.8871 7.25884 71.9022 4.80127 68.7661 4.80127C66.7849 4.80127 65.5057 5.72918 64.5778 6.98343V6.80724C64.5778 5.75408 63.7246 4.90141 62.6716 4.90141C62.6479 4.90141 62.6259 4.90325 62.6035 4.90508H61.2838C60.9979 4.90508 60.7644 5.13803 60.7644 5.42314V22.0948V22.0943ZM71.0745 11.799C71.0745 14.056 69.5693 15.5117 67.7885 15.5117C66.0077 15.5117 64.5276 14.0314 64.5276 11.799V11.7487C64.5276 9.51644 66.0078 8.03608 67.7885 8.03608C69.5693 8.03608 71.0745 9.51634 71.0745 11.7487V11.799Z" fill="white"/>
<path d="M85.5967 6.24321L84.5145 5.713L84.5131 5.71535C83.1932 5.11645 81.7355 4.79459 80.339 4.84349C77.6316 4.93965 75.4788 6.54567 75.5753 9.27886L75.577 9.32918C75.6686 11.9362 77.8309 12.7392 79.7306 13.2246C81.2254 13.6236 82.5391 13.8532 82.5678 14.6804L82.5699 14.7307C82.5916 15.3323 82.103 15.751 81.0007 15.7897C79.9227 15.8283 78.6294 15.4716 77.3227 14.7148C77.1186 14.5965 76.8391 14.5307 76.5641 14.5406C76.0243 14.559 75.5759 14.8371 75.325 15.2534L74.786 16.2164C74.6626 16.4329 74.7384 16.7122 74.9544 16.837L75.8658 17.3654L75.8667 17.364C75.873 17.3686 75.8794 17.3723 75.8858 17.3756C77.5528 18.3712 79.3489 18.785 81.004 18.7266C83.912 18.6248 86.0947 17.1923 85.99 14.2085L85.9885 14.1588C85.9023 11.7017 83.6889 10.8759 81.7879 10.3154C80.3159 9.86541 79.0256 9.55907 78.9989 8.80755L78.9973 8.75672C78.9786 8.23121 79.4399 7.81258 80.3686 7.77961C81.1694 7.75184 82.2091 8.04155 83.306 8.52959C83.5609 8.64668 83.738 8.69037 84.0141 8.68026C84.6461 8.6578 85.1687 8.2799 85.3846 7.73878L85.8105 6.84925C85.9177 6.62407 85.8215 6.35141 85.5973 6.24331" fill="white"/>
<path d="M99.1685 16.6308C99.3956 16.4589 99.4401 16.1321 99.2676 15.9048L98.7034 15.1626L98.6992 15.1639C98.4387 14.7775 98.0017 14.5326 97.4787 14.5326C97.0775 14.5326 96.8271 14.6323 96.5507 14.8328C95.7728 15.4103 94.8952 15.7368 93.841 15.7368C92.1361 15.7368 90.9318 14.8328 90.5551 13.1023H98.1061C99.1097 13.1023 99.8861 12.3751 99.8861 11.2712C99.8861 8.48644 97.9059 4.79932 93.4153 4.79932C89.5005 4.79932 86.7678 7.95981 86.7678 11.7979V11.848C86.7678 15.9619 89.7526 18.7976 93.7921 18.7976C95.5933 18.7976 97.0335 18.2639 98.1712 17.3959L99.1685 16.6309V16.6308ZM90.506 10.7195C90.8073 8.98898 91.8351 7.85926 93.4156 7.85926C95.0209 7.85926 96.0246 9.01328 96.2507 10.7195H90.5057" fill="white"/>
<path d="M22.5271 18.1283C22.5271 18.4137 22.294 18.6468 22.0077 18.6468H20.5543V18.6434C19.5315 18.6081 18.7148 17.7718 18.7148 16.7405V0.552666C18.7148 0.266944 18.948 0.0336914 19.2327 0.0336914H20.6886V0.0366517C21.7104 0.0726859 22.528 0.909027 22.528 1.93983V18.1287L22.5271 18.1283Z" fill="white"/>
<path d="M25.5517 22.9864C27.1328 23.6139 28.4801 23.9143 30.2616 23.9143C32.8702 23.9143 34.5939 23.3625 35.8492 22.1087C36.9771 20.9797 37.5543 19.2239 37.5543 16.8152V6.79099V6.77874V5.39995C37.5543 5.10953 37.3165 4.87158 37.0269 4.87158H35.643C34.5922 4.87475 33.7414 5.7266 33.7414 6.75322V6.77864L33.7917 12.4257V12.4756C33.7917 14.3066 32.5701 15.5863 30.713 15.5863C28.8562 15.5863 27.6599 14.3315 27.6599 12.4756V12.4257H27.6556V6.80212C27.6556 5.73467 26.793 4.87168 25.727 4.87168C25.7227 4.87168 25.7206 4.87332 25.7166 4.87332V4.87158L24.3673 4.88189C24.0822 4.88189 23.8481 5.11535 23.8481 5.40127L23.8508 12.6837C23.9481 16.543 26.5284 18.7472 29.6101 18.7472C31.642 18.7472 32.6628 17.9196 33.7916 16.5647V17.217C33.7916 19.625 32.7698 20.8792 30.1611 20.8792C28.7319 20.8792 27.7597 20.5784 26.6556 20.0764C26.4799 20.0014 26.2799 19.9515 26.0293 19.9515C25.384 19.9515 24.8262 20.3524 24.592 20.9159L24.198 21.877C24.0899 22.1411 24.2164 22.4451 24.4811 22.5538L25.5517 22.9868" fill="white"/>
<path d="M16.1488 4.9574L14.4295 0.0831884C14.3916 -0.0230768 14.3181 -0.0283849 14.2668 0.0721638L13.457 1.63848C12.2118 1.01436 10.7733 0.68056 8.83478 0.68056C4.23506 0.68056 0.7521 3.86443 0.10083 7.99867C3.41638 3.5143 8.86745 4.09615 8.86745 4.09615L8.86214 4.10585C10.0633 4.12759 10.9722 4.4029 11.787 4.86726L10.9447 6.4987C10.8922 6.59946 10.9394 6.6557 11.0486 6.62467L16.0184 5.20831C16.1274 5.17748 16.1854 5.06438 16.1478 4.95812" fill="white"/>
<path d="M0.403187 7.93578C0.403187 7.93578 0.0825538 8.07012 0.0568297 8.55336C-0.0255488 9.45136 0.00630012 9.84038 0.00630012 9.84038C0.00630012 14.7412 3.99354 18.7285 8.89439 18.7285C13.794 18.7285 17.7825 14.7412 17.7825 9.84038C17.7825 8.85868 16.986 8.06307 16.0042 8.06307C15.9928 8.06307 15.9817 8.0645 15.9698 8.0645H9.89294C8.88143 8.0645 8.06132 8.88522 8.06132 9.89663C8.06132 10.908 8.88102 11.7279 9.89294 11.7279H13.8792C13.1157 13.7395 11.1697 15.1736 8.89388 15.1736C5.95276 15.1736 3.56123 12.7813 3.56123 9.83998C3.56123 9.83998 3.44751 8.79243 4.06255 7.23653C4.36491 6.43551 3.44057 6.62405 3.44057 6.62405C1.56567 7.02829 0.402983 7.93629 0.402983 7.93629L0.403187 7.93578ZM1.03945 13.8886L1.03996 13.8907C1.04231 13.8992 1.04445 13.9076 1.04762 13.9161C1.04445 13.907 1.0421 13.8984 1.03945 13.8886Z" fill="white"/>
<path d="M102.08 6.07273C102.08 6.73942 101.543 7.2685 100.862 7.2685C100.181 7.2685 99.6377 6.73942 99.6377 6.07273C99.6377 5.40605 100.181 4.88452 100.87 4.88452C101.544 4.88452 102.08 5.40605 102.08 6.07273H102.08ZM99.9429 6.07273C99.9429 6.60212 100.341 7.02187 100.87 7.02187C101.384 7.02871 101.775 6.60212 101.775 6.07947C101.775 5.5511 101.384 5.12369 100.856 5.12369C100.341 5.1238 99.9431 5.55121 99.9431 6.07273H99.9429ZM100.675 6.68827H100.399V5.50017C100.508 5.48577 100.66 5.46362 100.856 5.46362C101.08 5.46362 101.182 5.50017 101.261 5.55835C101.334 5.60929 101.385 5.69595 101.385 5.81171C101.385 5.95667 101.276 6.05078 101.138 6.09417V6.10907C101.254 6.14511 101.312 6.23912 101.349 6.39837C101.385 6.57935 101.413 6.64509 101.435 6.68827H101.145C101.109 6.64509 101.087 6.54363 101.051 6.39837C101.03 6.27516 100.957 6.21738 100.804 6.21738H100.675V6.68827H100.675ZM100.682 6.02159H100.812C100.964 6.02159 101.087 5.97075 101.087 5.84775C101.087 5.73934 101.008 5.66676 100.834 5.66676C100.761 5.66676 100.711 5.67421 100.682 5.68115V6.02159Z" fill="white"/>
</g>
<defs>
<clipPath id="clip0_854_2126">
<rect width="102.08" height="24" fill="white"/>
</clipPath>
</defs>
</svg>
